{
    "id": "eb562407-447c-4381-b0d5-2f4bb6eb6429",
    "schema": "https://metadata.datadrivendiscovery.org/schemas/v0/pipeline.json",
    "created": "2020-06-08T23:31:44.848887Z",
    "inputs": [
        {
            "name": "inputs"
        }
    ],
    "outputs": [
        {
            "data": "steps.4.produce",
            "name": "output predictions"
        }
    ],
    "steps": [
        {
            "type": "PRIMITIVE",
            "primitive": {
                "id": "f31f8c1f-d1c5-43e5-a4b2-2ae4a761ef2e",
                "version": "0.2.0",
                "python_path": "d3m.primitives.data_transformation.denormalize.Common",
                "name": "Denormalize datasets",
                "digest": "c4177842020cea66c8904a5567098a7040c98a8270a1297abb57353ca54f5b37"
            },
            "arguments": {
                "inputs": {
                    "type": "CONTAINER",
                    "data": "inputs.0"
                }
            },
            "outputs": [
                {
                    "id": "produce"
                }
            ]
        },
        {
            "type": "PRIMITIVE",
            "primitive": {
                "id": "4b42ce1e-9b98-4a25-b68e-fad13311eb65",
                "version": "0.3.0",
                "python_path": "d3m.primitives.data_transformation.dataset_to_dataframe.Common",
                "name": "Extract a DataFrame from a Dataset",
                "digest": "8457eeb19b44f5b26a5fb721a51087d618962a35f0aff17f4ad25d341a2170f2"
            },
            "arguments": {
                "inputs": {
                    "type": "CONTAINER",
                    "data": "steps.0.produce"
                }
            },
            "outputs": [
                {
                    "id": "produce"
                }
            ]
        },
        {
            "type": "PRIMITIVE",
            "primitive": {
                "id": "6e193006-9c92-4fbe-90be-3051daae7049",
                "version": "0.1.0",
                "python_path": "d3m.primitives.feature_extraction.resnet_cnn.UBC",
                "name": "ResNet Convolutional Neural Network",
                "digest": "ea701e724550b526ab7359885a6a44549e35b5a477e2700fdd5600d4450fda2c"
            },
            "arguments": {
                "inputs": {
                    "type": "CONTAINER",
                    "data": "steps.1.produce"
                },
                "outputs": {
                    "type": "CONTAINER",
                    "data": "steps.1.produce"
                }
            },
            "outputs": [
                {
                    "id": "produce"
                }
            ],
            "hyperparams": {
                "include_top": {
                    "type": "VALUE",
                    "data": true
                }
            }
        },
        {
            "type": "PRIMITIVE",
            "primitive": {
                "id": "23b044e9-32df-4bf8-aedd-9040d928416c",
                "version": "0.1.0",
                "python_path": "d3m.primitives.regression.canonical_correlation_forests.UBC",
                "name": "Canonical Correlation Forests Regressor",
                "digest": "e6cecdd004094dc0e277390a540c2b2bf255d4ad93d464e707d0cedb3d35c7af"
            },
            "arguments": {
                "inputs": {
                    "type": "CONTAINER",
                    "data": "steps.2.produce"
                },
                "outputs": {
                    "type": "CONTAINER",
                    "data": "steps.1.produce"
                }
            },
            "outputs": [
                {
                    "id": "produce"
                }
            ],
            "hyperparams": {
                "nTrees": {
                    "type": "VALUE",
                    "data": 150
                },
                "parallelprocessing": {
                    "type": "VALUE",
                    "data": true
                }
            }
        },
        {
            "type": "PRIMITIVE",
            "primitive": {
                "id": "8d38b340-f83f-4877-baaa-162f8e551736",
                "version": "0.3.0",
                "python_path": "d3m.primitives.data_transformation.construct_predictions.Common",
                "name": "Construct pipeline predictions output",
                "digest": "9d75def19d2f401d3352d2d4b924269ddfca67d7bf998dc6bdd246d990ada0f4"
            },
            "arguments": {
                "inputs": {
                    "type": "CONTAINER",
                    "data": "steps.3.produce"
                },
                "reference": {
                    "type": "CONTAINER",
                    "data": "steps.1.produce"
                }
            },
            "outputs": [
                {
                    "id": "produce"
                }
            ]
        }
    ],
    "digest": "c790b79ecf798b791c368cfd4b0e79211cdcf3f0a8b3adf60b9ec5a40fb4adc9"
}