{
    "id":"83f9b524-d60c-48d9-8627-cde959fd101a",
    "schema":"https://metadata.datadrivendiscovery.org/schemas/v0/pipeline.json",
    "created":"2019-06-17T18:11:48.830720Z",
    "inputs":[
        {
            "name":"input dataset"
        }
    ],
    "outputs":[
        {
            "data":"steps.6.produce",
            "name":"predictions of input dataset"
        }
    ],
    "steps":[
        {
            "type":"PRIMITIVE",
            "primitive":{
                "id":"f31f8c1f-d1c5-43e5-a4b2-2ae4a761ef2e",
                "version":"0.2.0",
                "python_path":"d3m.primitives.data_transformation.denormalize.Common",
                "name":"Denormalize datasets",
                "digest":"faba42ad3ac07e47f3a47784bb5e7ee74d900fb42b9a0ac4e7ea5253267f8ac4"
            },
            "arguments":{
                "inputs":{
                    "type":"CONTAINER",
                    "data":"inputs.0"
                }
            },
            "outputs":[
                {
                    "id":"produce"
                }
            ]
        },
        {
            "type":"PRIMITIVE",
            "primitive":{
                "id":"4b42ce1e-9b98-4a25-b68e-fad13311eb65",
                "version":"0.3.0",
                "python_path":"d3m.primitives.data_transformation.dataset_to_dataframe.Common",
                "name":"Extract a DataFrame from a Dataset",
                "digest":"4e971e251e548f1188c280c60f4e2f9a460865f21bcfd341114270bdafa4c4dc"
            },
            "arguments":{
                "inputs":{
                    "type":"CONTAINER",
                    "data":"steps.0.produce"
                }
            },
            "outputs":[
                {
                    "id":"produce"
                }
            ]
        },
        {
            "type":"PRIMITIVE",
            "primitive":{
                "id":"4503a4c6-42f7-45a1-a1d4-ed69699cf5e1",
                "version":"0.3.0",
                "python_path":"d3m.primitives.data_transformation.extract_columns_by_semantic_types.DataFrameCommon",
                "name":"Extracts columns by semantic type",
                "digest":"ea473cf02c17ae9d2610be746cb726d91991bc6e39c0c85d1b1550eacd1581be"
            },
            "arguments":{
                "inputs":{
                    "type":"CONTAINER",
                    "data":"steps.1.produce"
                }
            },
            "outputs":[
                {
                    "id":"produce"
                }
            ],
            "hyperparams":{
                "semantic_types":{
                    "type":"VALUE",
                    "data":[
                        "https://metadata.datadrivendiscovery.org/types/TrueTarget"
                    ]
                }
            }
        },
        {
            "type":"PRIMITIVE",
            "primitive":{
                "id":"7ddf2fd8-2f7f-4e53-96a7-0d9f5aeecf93",
                "version":"1.5.3",
                "python_path":"d3m.primitives.data_transformation.to_numeric.DSBOX",
                "name":"ISI DSBox To Numeric DataFrame",
                "digest":"1e2a7dc4889bd453fa0216571ed6bc605ff02607f194082b2e9e5c41f8272058"
            },
            "arguments":{
                "inputs":{
                    "type":"CONTAINER",
                    "data":"steps.2.produce"
                }
            },
            "outputs":[
                {
                    "id":"produce"
                }
            ],
            "hyperparams":{
                "drop_non_numeric_columns":{
                    "type":"VALUE",
                    "data":false
                }
            }
        },
        {
            "type":"PRIMITIVE",
            "primitive":{
                "id":"dsbox-featurizer-timeseries-to-dataframe",
                "version":"1.5.3",
                "python_path":"d3m.primitives.data_preprocessing.time_series_to_list.DSBOX",
                "name":"DSBox Timeseries Featurizer dataframe to List Transformer",
                "digest":"d2a9ae46a84dbc9653c14414f608ec0d75213ed714fb2c8d72fe9e84714e3c07"
            },
            "arguments":{
                "inputs":{
                    "type":"CONTAINER",
                    "data":"steps.1.produce"
                }
            },
            "outputs":[
                {
                    "id":"produce"
                }
            ]
        },
        {
            "type":"PRIMITIVE",
            "primitive":{
                "id":"dsbox.timeseries_featurization.random_projection",
                "version":"1.5.3",
                "python_path":"d3m.primitives.feature_extraction.random_projection_timeseries_featurization.DSBOX",
                "name":"DSBox random projection timeseries featurization ",
                "digest":"36bd7b86a10a558aca036cc9345e364df7b8af1c1c8845f6d0bb64c1c5aedda9"
            },
            "arguments":{
                "inputs":{
                    "type":"CONTAINER",
                    "data":"steps.4.produce"
                }
            },
            "outputs":[
                {
                    "id":"produce"
                }
            ],
            "hyperparams":{
                "generate_metadata":{
                    "type":"VALUE",
                    "data":true
                }
            }
        },
        {
            "type":"PRIMITIVE",
            "primitive":{
                "id":"1dd82833-5692-39cb-84fb-2455683075f3",
                "version":"2019.6.7",
                "python_path":"d3m.primitives.classification.random_forest.SKlearn",
                "name":"sklearn.ensemble.forest.RandomForestClassifier",
                "digest":"6023cf352a95d998b3b8d516dfcb4a6bfa7deb74f9d3fa9edc1277119255e071"
            },
            "arguments":{
                "inputs":{
                    "type":"CONTAINER",
                    "data":"steps.5.produce"
                },
                "outputs":{
                    "type":"CONTAINER",
                    "data":"steps.3.produce"
                }
            },
            "outputs":[
                {
                    "id":"produce"
                }
            ],
            "hyperparams":{
                "add_index_columns":{
                    "type":"VALUE",
                    "data":true
                },
                "use_semantic_types":{
                    "type":"VALUE",
                    "data":true
                }
            }
        }
    ],
    "name":"Default_timeseries_collection_template:139695212943472",
    "description":"",
    "digest":"8dec63a04b79804eff7aa4b2c14f1cf05a10aadeb92e16b2adaadf7e36454ff8"
}