{
    "id": "bd127b66-7909-41e8-9643-3dd0c3962982",
    "schema": "https://metadata.datadrivendiscovery.org/schemas/v0/pipeline.json",
    "created": "2020-11-17T18:54:07.230332Z",
    "inputs": [
        {
            "name": "inputs"
        }
    ],
    "outputs": [
        {
            "data": "steps.1.produce",
            "name": "output"
        }
    ],
    "steps": [
        {
            "type": "PRIMITIVE",
            "primitive": {
                "id": "ae0797506-ea7b-4a7f-a7e4-2f91e2082f05",
                "version": "0.5.1",
                "python_path": "d3m.primitives.data_transformation.load_graphs.DistilGraphLoader",
                "name": "Load graphs into a parseable object"
            },
            "arguments": {
                "inputs": {
                    "type": "CONTAINER",
                    "data": "inputs.0"
                }
            },
            "outputs": [
                {
                    "id": "produce"
                },
                {
                    "id": "produce_target"
                }
            ]
        },
        {
            "type": "PRIMITIVE",
            "primitive": {
                "id": "8baea8e6-9d3a-46d7-acf1-04fd593dcd37",
                "version": "0.5.1",
                "python_path": "d3m.primitives.graph_matching.seeded_graph_matching.DistilSeededGraphMatcher",
                "name": "SeededGraphMatcher"
            },
            "arguments": {
                "inputs": {
                    "type": "CONTAINER",
                    "data": "steps.0.produce"
                },
                "outputs": {
                    "type": "CONTAINER",
                    "data": "steps.0.produce_target"
                }
            },
            "outputs": [
                {
                    "id": "produce"
                }
            ],
            "hyperparams": {
                "metric": {
                    "type": "VALUE",
                    "data": "accuracy"
                }
            }
        }
    ],
    "digest": "9e6e3fd866b66f51833e0cc067d66587d1668d3e8f3a6586726d1bf579c904d4"
}
