{
    "id": "ef6f3887-b253-4bfd-8b35-ada449efad0c",
    "version": "3.1.2",
    "name": "RF Features",
    "keywords": [
        "Rank and score numeric features based on Random Forest and Recursive Feature Elimination"
    ],
    "source": {
        "name": "Distil",
        "contact": "mailto:jeffrey.gleason@kungfu.ai",
        "uris": [
            "https://github.com/kungfuai/d3m-primitives"
        ]
    },
    "installation": [
        {
            "type": "PIP",
            "package": "cython",
            "version": "0.29.16"
        },
        {
            "type": "PIP",
            "package_uri": "git+https://github.com/kungfuai/d3m-primitives.git@985acacd7e7eaf592f4ed5de480a37d42706a084#egg=kf-d3m-primitives"
        }
    ],
    "python_path": "d3m.primitives.feature_selection.rffeatures.Rffeatures",
    "algorithm_types": [
        "RANDOM_FOREST"
    ],
    "primitive_family": "FEATURE_SELECTION",
    "schema": "https://metadata.datadrivendiscovery.org/schemas/v0/primitive.json",
    "original_python_path": "primitives.feature_selection.rf_features.rf_features.RfFeaturesPrimitive",
    "primitive_code": {
        "class_type_arguments": {
            "Inputs": "d3m.container.pandas.DataFrame",
            "Outputs": "d3m.container.pandas.DataFrame",
            "Params": "primitives.feature_selection.rf_features.rf_features.Params",
            "Hyperparams": "primitives.feature_selection.rf_features.rf_features.Hyperparams"
        },
        "interfaces_version": "2020.5.18",
        "interfaces": [
            "base.PrimitiveBase"
        ],
        "hyperparams": {
            "proportion_of_features": {
                "type": "d3m.metadata.hyperparams.Uniform",
                "default": 1.0,
                "structural_type": "float",
                "semantic_types": [
                    "https://metadata.datadrivendiscovery.org/types/TuningParameter"
                ],
                "description": "proportion of top features from input dataset to keep",
                "lower": 0.0,
                "upper": 1.0,
                "lower_inclusive": true,
                "upper_inclusive": true
            },
            "only_numeric_cols": {
                "type": "d3m.metadata.hyperparams.UniformBool",
                "default": false,
                "structural_type": "bool",
                "semantic_types": [
                    "https://metadata.datadrivendiscovery.org/types/TuningParameter"
                ],
                "description": "consider only numeric columns for feature selection"
            }
        },
        "arguments": {
            "hyperparams": {
                "type": "primitives.feature_selection.rf_features.rf_features.Hyperparams",
                "kind": "RUNTIME"
            },
            "random_seed": {
                "type": "int",
                "kind": "RUNTIME",
                "default": 0
            },
            "timeout": {
                "type": "typing.Union[NoneType, float]",
                "kind": "RUNTIME",
                "default": null
            },
            "iterations": {
                "type": "typing.Union[NoneType, int]",
                "kind": "RUNTIME",
                "default": null
            },
            "produce_methods": {
                "type": "typing.Sequence[str]",
                "kind": "RUNTIME"
            },
            "inputs": {
                "type": "d3m.container.pandas.DataFrame",
                "kind": "PIPELINE"
            },
            "outputs": {
                "type": "d3m.container.pandas.DataFrame",
                "kind": "PIPELINE"
            },
            "params": {
                "type": "primitives.feature_selection.rf_features.rf_features.Params",
                "kind": "RUNTIME"
            }
        },
        "class_methods": {},
        "instance_methods": {
            "__init__": {
                "kind": "OTHER",
                "arguments": [
                    "hyperparams",
                    "random_seed"
                ],
                "returns": "NoneType"
            },
            "fit": {
                "kind": "OTHER",
                "arguments": [
                    "timeout",
                    "iterations"
                ],
                "returns": "d3m.primitive_interfaces.base.CallResult[NoneType]",
                "description": "fits rffeatures feature selection algorithm on the training set. applies same feature selection to test set\nfor consistency with downstream classifiers\n\nParameters\n----------\ntimeout:\n    A maximum time this primitive should be fitting during this method call, in seconds.\niterations:\n    How many of internal iterations should the primitive do.\n\nReturns\n-------\nA ``CallResult`` with ``None`` value."
            },
            "fit_multi_produce": {
                "kind": "OTHER",
                "arguments": [
                    "produce_methods",
                    "inputs",
                    "outputs",
                    "timeout",
                    "iterations"
                ],
                "returns": "d3m.primitive_interfaces.base.MultiCallResult",
                "description": "A method calling ``fit`` and after that multiple produce methods at once.\n\nThis method allows primitive author to implement an optimized version of both fitting\nand producing a primitive on same data.\n\nIf any additional method arguments are added to primitive's ``set_training_data`` method\nor produce method(s), or removed from them, they have to be added to or removed from this\nmethod as well. This method should accept an union of all arguments accepted by primitive's\n``set_training_data`` method and produce method(s) and then use them accordingly when\ncomputing results.\n\nThe default implementation of this method just calls first ``set_training_data`` method,\n``fit`` method, and all produce methods listed in ``produce_methods`` in order and is\npotentially inefficient.\n\nParameters\n----------\nproduce_methods:\n    A list of names of produce methods to call.\ninputs:\n    The inputs given to ``set_training_data`` and all produce methods.\noutputs:\n    The outputs given to ``set_training_data``.\ntimeout:\n    A maximum time this primitive should take to both fit the primitive and produce outputs\n    for all produce methods listed in ``produce_methods`` argument, in seconds.\niterations:\n    How many of internal iterations should the primitive do for both fitting and producing\n    outputs of all produce methods.\n\nReturns\n-------\nA dict of values for each produce method wrapped inside ``MultiCallResult``."
            },
            "get_params": {
                "kind": "OTHER",
                "arguments": [],
                "returns": "primitives.feature_selection.rf_features.rf_features.Params",
                "description": "Returns parameters of this primitive.\n\nParameters are all parameters of the primitive which can potentially change during a life-time of\na primitive. Parameters which cannot are passed through constructor.\n\nParameters should include all data which is necessary to create a new instance of this primitive\nbehaving exactly the same as this instance, when the new instance is created by passing the same\nparameters to the class constructor and calling ``set_params``.\n\nNo other arguments to the method are allowed (except for private arguments).\n\nReturns\n-------\nAn instance of parameters."
            },
            "multi_produce": {
                "kind": "OTHER",
                "arguments": [
                    "produce_methods",
                    "inputs",
                    "timeout",
                    "iterations"
                ],
                "returns": "d3m.primitive_interfaces.base.MultiCallResult",
                "description": "A method calling multiple produce methods at once.\n\nWhen a primitive has multiple produce methods it is common that they might compute the\nsame internal results for same inputs but return different representations of those results.\nIf caller is interested in multiple of those representations, calling multiple produce\nmethods might lead to recomputing same internal results multiple times. To address this,\nthis method allows primitive author to implement an optimized version which computes\ninternal results only once for multiple calls of produce methods, but return those different\nrepresentations.\n\nIf any additional method arguments are added to primitive's produce method(s), they have\nto be added to this method as well. This method should accept an union of all arguments\naccepted by primitive's produce method(s) and then use them accordingly when computing\nresults.\n\nThe default implementation of this method just calls all produce methods listed in\n``produce_methods`` in order and is potentially inefficient.\n\nIf primitive should have been fitted before calling this method, but it has not been,\nprimitive should raise a ``PrimitiveNotFittedError`` exception.\n\nParameters\n----------\nproduce_methods:\n    A list of names of produce methods to call.\ninputs:\n    The inputs given to all produce methods.\ntimeout:\n    A maximum time this primitive should take to produce outputs for all produce methods\n    listed in ``produce_methods`` argument, in seconds.\niterations:\n    How many of internal iterations should the primitive do.\n\nReturns\n-------\nA dict of values for each produce method wrapped inside ``MultiCallResult``."
            },
            "produce": {
                "kind": "PRODUCE",
                "arguments": [
                    "inputs",
                    "timeout",
                    "iterations"
                ],
                "returns": "d3m.primitive_interfaces.base.CallResult[d3m.container.pandas.DataFrame]",
                "singleton": false,
                "inputs_across_samples": [],
                "description": "Perform supervised recursive feature elimination using random forests to generate an ordered\nlist of features\n\nParameters\n----------\ninputs : Input pandas frame, NOTE: Target column MUST be the last column\n\nReturns\n-------\nOutputs : pandas frame with ordered list of original features in first column"
            },
            "produce_metafeatures": {
                "kind": "PRODUCE",
                "arguments": [
                    "inputs",
                    "timeout",
                    "iterations"
                ],
                "returns": "d3m.primitive_interfaces.base.CallResult[d3m.container.pandas.DataFrame]",
                "singleton": false,
                "inputs_across_samples": [],
                "description": "Perform supervised recursive feature elimination using random forests to generate an ordered\nlist of features\nParameters\n----------\ninputs : Input pandas frame, NOTE: Target column MUST be the last column\nReturns\n-------\nOutputs : pandas frame with ordered list of original features in first column"
            },
            "set_params": {
                "kind": "OTHER",
                "arguments": [
                    "params"
                ],
                "returns": "NoneType",
                "description": "Sets parameters of this primitive.\n\nParameters are all parameters of the primitive which can potentially change during a life-time of\na primitive. Parameters which cannot are passed through constructor.\n\nNo other arguments to the method are allowed (except for private arguments).\n\nParameters\n----------\nparams:\n    An instance of parameters."
            },
            "set_training_data": {
                "kind": "OTHER",
                "arguments": [
                    "inputs",
                    "outputs"
                ],
                "returns": "NoneType",
                "description": "Sets primitive's training data\n\nParameters\n----------\ninputs = D3M dataframe"
            }
        },
        "class_attributes": {
            "logger": "logging.Logger",
            "metadata": "d3m.metadata.base.PrimitiveMetadata"
        },
        "instance_attributes": {
            "hyperparams": "d3m.metadata.hyperparams.Hyperparams",
            "random_seed": "int",
            "docker_containers": "typing.Dict[str, d3m.primitive_interfaces.base.DockerContainer]",
            "volumes": "typing.Dict[str, str]",
            "temporary_directory": "typing.Union[NoneType, str]"
        },
        "params": {
            "bestFeatures": "typing.List[str]"
        }
    },
    "structural_type": "primitives.feature_selection.rf_features.rf_features.RfFeaturesPrimitive",
    "description": "Perform supervised recursive feature elimination using random forests to generate an ordered\nlist of features\n\nAttributes\n----------\nmetadata:\n    Primitive's metadata. Available as a class attribute.\nlogger:\n    Primitive's logger. Available as a class attribute.\nhyperparams:\n    Hyperparams passed to the constructor.\nrandom_seed:\n    Random seed passed to the constructor.\ndocker_containers:\n    A dict mapping Docker image keys from primitive's metadata to (named) tuples containing\n    container's address under which the container is accessible by the primitive, and a\n    dict mapping exposed ports to ports on that address.\nvolumes:\n    A dict mapping volume keys from primitive's metadata to file and directory paths\n    where downloaded and extracted files are available to the primitive.\ntemporary_directory:\n    An absolute path to a temporary directory a primitive can use to store any files\n    for the duration of the current pipeline run phase. Directory is automatically\n    cleaned up after the current pipeline run phase finishes.\n\nParameters\n----------\ninputs : Input D3M pandas frame\n\nReturns\n-------\nOutputs : D3M frame with top num_features selected by algorithm",
    "digest": "2065f67791e1d9b111b7ca83ce5948f47a44addfb7cbb35613543321ba29bc4e"
}
